14698 - "AccName":"BK CONG TY TNHH DICH VU DOI NO SONG BAO","AccNo":"902005526446"
16216 - "AccName":"BK CONG TY TNHH DICH VU DOI NO SONG BAO","AccNo":"902005526431"
23373 - "AccName":"BK CONG TY TNHH DICH VU DOI NO SONG BAO","AccNo":"902005526414"
26232 - "AccName":"BK CONG TY TNHH DICH VU DOI NO SONG BAO","AccNo":"902005526400"
20989 - "AccName":"BK CONG TY TNHH DICH VU DOI NO SONG BAO","AccNo":"902005532907"

19438 - "AccName":"BK CONG TY TNHH DICH VU DOI NO SONG BAO","AccNo":"902005533064"
20310 - "AccName":"BK CONG TY TNHH DICH VU DOI NO SONG BAO","AccNo":"902005533027"
20966 - "AccName":"BK CONG TY TNHH DICH VU DOI NO SONG BAO","AccNo":"902005532958"
23099 - "AccName":"BK CONG TY TNHH DICH VU DOI NO SONG BAO","AccNo":"902005532907"
24075 - "AccName":"BK CONG TY TNHH DICH VU DOI NO SONG BAO","AccNo":"902005532882"
25670 - "AccName":"BK CONG TY TNHH DICH VU DOI NO SONG BAO","AccNo":"902005532671"
26843 - "AccName":"BK CONG TY TNHH DICH VU DOI NO SONG BAO","AccNo":"902005532655"

http://veors.moneyveo.vn/Veo.Web.Admin/en/Application/Details/14698
http://veors.moneyveo.vn/Veo.Web.Admin/en/Application/Details/16216
http://veors.moneyveo.vn/Veo.Web.Admin/en/Application/Details/20989
http://veors.moneyveo.vn/Veo.Web.Admin/en/Application/Details/23373
http://veors.moneyveo.vn/Veo.Web.Admin/en/Application/Details/26232

https://veors.moneyveo.vn/Veo.Web.Admin/ru/Login?ReturnUrl=%2fVeo.Web.Admin%2fen%2fTransaction%2fIndex%2f16

{"RequestId":"4beea512a8c04abdb0d735dcfaa5b1af","AccName":"BK CONG TY TNHH DICH VU DOI NO SONG BAO","AccNo":"902005532907","ClientIdNo":null,"IssuedDate":"2010-03-29","IssuedPlace":"CA TINH NAM DINH","CollectAmount":"547750","ExpireDate":"9999-12-31","AccountType":"2","OrderId":"SONGBAO158819869","ResponseCode":200,"ServiceRequestId":null,"ResponseMessage":"Success","Signature":"T7XIIK1CZGw4xTcUgF4hMtTfn4Xw8q0AjwO18MR3BO30Dtj1KR7tfkdsQNnzoTE8KjRu5e7sLrm2j4lfUakBelfJcfLXuDxxLbkMSM8sq19/IYW4q4os/8a7TY6ZVZRPYpPX9hUmlwCjC9mWk8GXCkVfE53HOmAlfuWfAtFNy3Q="}